…
Esto, es mucho más legible que:
`storms[(storms$long == -65.9 & storms$year == 1981), ]`

## Select

De una manera similar a las bases de datos relacionales, con la función
**select**, seleccionamos las columnas que queremos utilizar, por
ejemplo, seleccionaremos del dataframe las columnas: ‘name’ y ‘status’.

``` r
select(storms, name, status) # Equivalente: storms[, c("name", "status")]
```

    ## # A tibble: 11,859 × 2
    ##    name  status             
    ##    <chr> <chr>              
    ##  1 Amy   tropical depression
    ##  2 Amy   tropical depression
    ##  3 Amy   tropical depression
    ##  4 Amy   tropical depression
    ##  5 Amy   tropical depression
    ##  6 Amy   tropical depression
    ##  7 Amy   tropical depression
    ##  8 Amy   tropical depression
    ##  9 Amy   tropical storm     
    ## 10 Amy   tropical storm     
    ## # … with 11,849 more rows

Puede apreciarse que, no es necesario utilizar el operador **$** para
seleccionar las columnas, basta con que el primer argumento sea el
dataframe y, los siguientes, los nombres de las columnas.

También podemos seleccionar rangos, por ejemplo, se tomarán las columnas
desde: ‘year’ a ‘hour’ (ambas inclusive).

``` r
select(storms, year:hour)
```

    ## # A tibble: 11,859 × 4
    ##     year month   day  hour
    ##    <dbl> <dbl> <int> <dbl>
    ##  1  1975     6    27     0
    ##  2  1975     6    27     6
    ##  3  1975     6    27    12
    ##  4  1975     6    27    18
    ##  5  1975     6    28     0
    ##  6  1975     6    28     6
    ##  7  1975     6    28    12
    ##  8  1975     6    28    18
    ##  9  1975     6    29     0
    ## 10  1975     6    29     6
    ## # … with 11,849 more rows
…
``` r
storms %>%
  select(year, name, pressure) %>% 
  group_by(name, year) %>% 
  summarise(media_presion = round(mean(pressure), 2)) %>% 
  arrange(year)
```

    ## `summarise()` has grouped output by 'name'. You can override using the
    ## `.groups` argument.

    ## # A tibble: 512 × 3
    ## # Groups:   name [214]
    ##    name      year media_presion
    ##    <chr>    <dbl>         <dbl>
    ##  1 Amy       1975          995.
    ##  2 Caroline  1975         1002.
    ##  3 Doris     1975          983.
    ##  4 Belle     1976          982.
    ##  5 Gloria    1976          993.
    ##  6 Anita     1977          982.
    ##  7 Clara     1977         1005.
    ##  8 Evelyn    1977         1001.
    ##  9 Amelia    1978         1008.
    ## 10 Bess      1978         1009.
    ## # … with 502 more rows
…
## Rename

Su uso es muy sencillo, simplemente pasamos como argumento el dataframe
y el nuevo nombre que utilizaremos para una columna determinada. Por
ejemplo, se cambiará el nombre de la variable ‘status’ por ‘tipo’.

``` r
rename(storms, tipo = status)
```

    ## # A tibble: 11,859 × 13
    ##    name   year month   day  hour   lat  long tipo  categ…¹  wind press…² tropi…³
    ##    <chr> <dbl> <dbl> <int> <dbl> <dbl> <dbl> <chr> <ord>   <int>   <int>   <int>
    ##  1 Amy    1975     6    27     0  27.5 -79   trop… -1         25    1013      NA
    ##  2 Amy    1975     6    27     6  28.5 -79   trop… -1         25    1013      NA
    ##  3 Amy    1975     6    27    12  29.5 -79   trop… -1         25    1013      NA
    ##  4 Amy    1975     6    27    18  30.5 -79   trop… -1         25    1013      NA
    ##  5 Amy    1975     6    28     0  31.5 -78.8 trop… -1         25    1012      NA
    ##  6 Amy    1975     6    28     6  32.4 -78.7 trop… -1         25    1012      NA
    ##  7 Amy    1975     6    28    12  33.3 -78   trop… -1         25    1011      NA
    ##  8 Amy    1975     6    28    18  34   -77   trop… -1         30    1006      NA
    ##  9 Amy    1975     6    29     0  34.4 -75.8 trop… 0          35    1004      NA
    ## 10 Amy    1975     6    29     6  34   -74.8 trop… 0          40    1002      NA
    ## # … with 11,849 more rows, 1 more variable: hurricane_force_diameter <int>, and
    ## #   abbreviated variable names ¹​category, ²​pressure,
    ## #   ³​tropicalstorm_force_diameter
…
## Sample_frac

Devuelve una muestra aleatoria del dataframe de forma porcentual,
podemos utilizar `replace=T` para hacer muestreos.

``` r
sample_frac(storms, 0.01)
```

    ## # A tibble: 119 × 13
    ##    name     year month   day  hour   lat  long status      categ…¹  wind press…²
    ##    <chr>   <dbl> <dbl> <int> <dbl> <dbl> <dbl> <chr>       <ord>   <int>   <int>
    ##  1 Arthur   2014     7     2     6  28.2 -79.1 tropical s… 0          50     995
    ##  2 Iota     2020    11    15     6  13   -77.1 hurricane   1          65     988
    ##  3 Iris     1989     9    19     6  18.1 -57.5 tropical s… 0          55    1001
    ##  4 Charley  1998     8    22    12  27.9 -97.4 tropical s… 0          35    1001
    ##  5 Alex     2004     8     3     0  32.4 -78.2 tropical s… 0          60     987
    ##  6 Ernesto  2012     8     4     6  13.9 -66.4 tropical s… 0          45    1005
    ##  7 Isaac    2012     8    29    18  29.7 -90.8 tropical s… 0          60     973
    ##  8 Kyle     2008     9    25     0  21.5 -70   tropical d… -1         30    1005
    ##  9 Alberto  2000     8     9    12  21.9 -49.9 tropical s… 0          55     994
    ## 10 Keith    1988    11    17    18  14.9 -74.3 tropical d… -1         30    1008
    ## # … with 109 more rows, 2 more variables: tropicalstorm_force_diameter <int>,
    ## #   hurricane_force_diameter <int>, and abbreviated variable names ¹​category,
    ## #   ²​pressure
