…
``` r
gather(billboard, "week", "sales", 4:ncol(billboard))
```

    ## # A tibble: 24,092 × 5
    ##    artist         track                   date.entered week  sales
    ##    <chr>          <chr>                   <date>       <chr> <dbl>
    ##  1 2 Pac          Baby Don't Cry (Keep... 2000-02-26   wk1      87
    ##  2 2Ge+her        The Hardest Part Of ... 2000-09-02   wk1      91
    ##  3 3 Doors Down   Kryptonite              2000-04-08   wk1      81
    ##  4 3 Doors Down   Loser                   2000-10-21   wk1      76
    ##  5 504 Boyz       Wobble Wobble           2000-04-15   wk1      57
    ##  6 98^0           Give Me Just One Nig... 2000-08-19   wk1      51
    ##  7 A*Teens        Dancing Queen           2000-07-08   wk1      97
    ##  8 Aaliyah        I Don't Wanna           2000-01-29   wk1      84
    ##  9 Aaliyah        Try Again               2000-03-18   wk1      59
    ## 10 Adams, Yolanda Open My Heart           2000-08-26   wk1      76
    ## # … with 24,082 more rows
…
